Library\Bee\artifacts\mvdfrm\Unity.2D.Common.Runtime.ref.dll_65CCE411FBFC3B8E.mvfrm
Library\Bee\artifacts\mvdfrm\Unity.Burst.ref.dll_59592FE1C19AAD4D.mvfrm
Library\Bee\artifacts\mvdfrm\Unity.Mathematics.ref.dll_92C0142275484313.mvfrm
Library\Bee\artifacts\mvdfrm\UnityEngine.UI.ref.dll_AFC2E85BC2EDBC0B.mvfrm
Library\Bee\artifacts\mvdfrm\UnityEngine.AccessibilityModule.dll_FA40E2119CD5267B.mvfrm
Library\Bee\artifacts\mvdfrm\UnityEngine.AIModule.dll_91E56E4B1CE5C10F.mvfrm
Library\Bee\artifacts\mvdfrm\UnityEngine.AndroidJNIModule.dll_733C52CC952E0E4D.mvfrm
Library\Bee\artifacts\mvdfrm\UnityEngine.AnimationModule.dll_E53B6A8F83BF6E61.mvfrm
Library\Bee\artifacts\mvdfrm\UnityEngine.ARModule.dll_4B58334E7A031FD8.mvfrm
Library\Bee\artifacts\mvdfrm\UnityEngine.AssetBundleModule.dll_2205B4FB6DEE8BAF.mvfrm
Library\Bee\artifacts\mvdfrm\UnityEngine.AudioModule.dll_F0F976E96328CF13.mvfrm
Library\Bee\artifacts\mvdfrm\UnityEngine.ClothModule.dll_57E1D3E43D45ADF7.mvfrm
Library\Bee\artifacts\mvdfrm\UnityEngine.ContentLoadModule.dll_BB1C0E3C3C71339C.mvfrm
Library\Bee\artifacts\mvdfrm\UnityEngine.CoreModule.dll_3E906A1021E7D346.mvfrm
Library\Bee\artifacts\mvdfrm\UnityEngine.CrashReportingModule.dll_4B8E15A14F582E9E.mvfrm
Library\Bee\artifacts\mvdfrm\UnityEngine.DirectorModule.dll_4EEE562BFA55C2E3.mvfrm
Library\Bee\artifacts\mvdfrm\UnityEngine.dll_331488927364336F.mvfrm
Library\Bee\artifacts\mvdfrm\UnityEngine.DSPGraphModule.dll_543FB7956CB69404.mvfrm
Library\Bee\artifacts\mvdfrm\UnityEngine.GameCenterModule.dll_9D899CE75B6EFF3E.mvfrm
Library\Bee\artifacts\mvdfrm\UnityEngine.GIModule.dll_2A21B758B894A929.mvfrm
Library\Bee\artifacts\mvdfrm\UnityEngine.GridModule.dll_1C0185FE3A3C693D.mvfrm
Library\Bee\artifacts\mvdfrm\UnityEngine.HotReloadModule.dll_668428955EF289E3.mvfrm
Library\Bee\artifacts\mvdfrm\UnityEngine.ImageConversionModule.dll_E6EC8592B822C30E.mvfrm
Library\Bee\artifacts\mvdfrm\UnityEngine.IMGUIModule.dll_29591650295A62F4.mvfrm
Library\Bee\artifacts\mvdfrm\UnityEngine.InputLegacyModule.dll_B34AD01A05E041A0.mvfrm
Library\Bee\artifacts\mvdfrm\UnityEngine.InputModule.dll_576F3E99D960F3B7.mvfrm
Library\Bee\artifacts\mvdfrm\UnityEngine.JSONSerializeModule.dll_5A586B4D9C108705.mvfrm
Library\Bee\artifacts\mvdfrm\UnityEngine.LocalizationModule.dll_026465BAA9BBEA10.mvfrm
Library\Bee\artifacts\mvdfrm\UnityEngine.ParticleSystemModule.dll_9EA05EEDBD69BA2C.mvfrm
Library\Bee\artifacts\mvdfrm\UnityEngine.PerformanceReportingModule.dll_5A117407EAB82E05.mvfrm
Library\Bee\artifacts\mvdfrm\UnityEngine.Physics2DModule.dll_31E15A8024BC65F6.mvfrm
Library\Bee\artifacts\mvdfrm\UnityEngine.PhysicsModule.dll_60F768B8ABB46A44.mvfrm
Library\Bee\artifacts\mvdfrm\UnityEngine.ProfilerModule.dll_81348F6293AF49F0.mvfrm
Library\Bee\artifacts\mvdfrm\UnityEngine.PropertiesModule.dll_CAC4DC25CE5A637A.mvfrm
Library\Bee\artifacts\mvdfrm\UnityEngine.RuntimeInitializeOnLoadManagerInitializerModule.dll_74407F1AA8B6C2BF.mvfrm
Library\Bee\artifacts\mvdfrm\UnityEngine.ScreenCaptureModule.dll_744018D2B07CB367.mvfrm
Library\Bee\artifacts\mvdfrm\UnityEngine.SharedInternalsModule.dll_6AFDC4682F50BE5E.mvfrm
Library\Bee\artifacts\mvdfrm\UnityEngine.SpriteMaskModule.dll_86B60F777CDE94B8.mvfrm
Library\Bee\artifacts\mvdfrm\UnityEngine.SpriteShapeModule.dll_3B66E2562390C3B9.mvfrm
Library\Bee\artifacts\mvdfrm\UnityEngine.StreamingModule.dll_99D057DFD347259F.mvfrm
Library\Bee\artifacts\mvdfrm\UnityEngine.SubstanceModule.dll_767B6C291E9A23AD.mvfrm
Library\Bee\artifacts\mvdfrm\UnityEngine.SubsystemsModule.dll_F16375D94B267CCB.mvfrm
Library\Bee\artifacts\mvdfrm\UnityEngine.TerrainModule.dll_7B3DE4278172B332.mvfrm
Library\Bee\artifacts\mvdfrm\UnityEngine.TerrainPhysicsModule.dll_9F1B07C0D6ACB4B9.mvfrm
Library\Bee\artifacts\mvdfrm\UnityEngine.TextCoreFontEngineModule.dll_0CB641C9BFFF7E04.mvfrm
Library\Bee\artifacts\mvdfrm\UnityEngine.TextCoreTextEngineModule.dll_549E783B4F833722.mvfrm
Library\Bee\artifacts\mvdfrm\UnityEngine.TextRenderingModule.dll_9D7F8ADD67B4335C.mvfrm
Library\Bee\artifacts\mvdfrm\UnityEngine.TilemapModule.dll_1A3A4BA8992F943B.mvfrm
Library\Bee\artifacts\mvdfrm\UnityEngine.TLSModule.dll_70AA9EEEF1348A18.mvfrm
Library\Bee\artifacts\mvdfrm\UnityEngine.UIElementsModule.dll_F5A1D7414E52B8C2.mvfrm
Library\Bee\artifacts\mvdfrm\UnityEngine.UIModule.dll_8D590C78792CC6BB.mvfrm
Library\Bee\artifacts\mvdfrm\UnityEngine.UmbraModule.dll_6BCE2301F04F7A86.mvfrm
Library\Bee\artifacts\mvdfrm\UnityEngine.UnityAnalyticsCommonModule.dll_F550314C04A0CC63.mvfrm
Library\Bee\artifacts\mvdfrm\UnityEngine.UnityAnalyticsModule.dll_BE3FCFB769910C28.mvfrm
Library\Bee\artifacts\mvdfrm\UnityEngine.UnityConnectModule.dll_31DAAA615B4024FC.mvfrm
Library\Bee\artifacts\mvdfrm\UnityEngine.UnityCurlModule.dll_18580BC0F3D3604E.mvfrm
Library\Bee\artifacts\mvdfrm\UnityEngine.UnityTestProtocolModule.dll_E789D24470099BBC.mvfrm
Library\Bee\artifacts\mvdfrm\UnityEngine.UnityWebRequestAssetBundleModule.dll_87B9F2367DBC0CF9.mvfrm
Library\Bee\artifacts\mvdfrm\UnityEngine.UnityWebRequestAudioModule.dll_D20DC7E67122F89D.mvfrm
Library\Bee\artifacts\mvdfrm\UnityEngine.UnityWebRequestModule.dll_F88B8D3CC3175D8D.mvfrm
Library\Bee\artifacts\mvdfrm\UnityEngine.UnityWebRequestTextureModule.dll_96AF5A2D0A947412.mvfrm
Library\Bee\artifacts\mvdfrm\UnityEngine.UnityWebRequestWWWModule.dll_1F60BD973F42F38E.mvfrm
Library\Bee\artifacts\mvdfrm\UnityEngine.VehiclesModule.dll_C6B14FAB747F927E.mvfrm
Library\Bee\artifacts\mvdfrm\UnityEngine.VFXModule.dll_F189375DC7A1F385.mvfrm
Library\Bee\artifacts\mvdfrm\UnityEngine.VideoModule.dll_1602FB5425BAEAB8.mvfrm
Library\Bee\artifacts\mvdfrm\UnityEngine.VRModule.dll_E02B32FE1AE74C33.mvfrm
Library\Bee\artifacts\mvdfrm\UnityEngine.WindModule.dll_B4DF4538B31E51AF.mvfrm
Library\Bee\artifacts\mvdfrm\UnityEngine.XRModule.dll_12E9F602A4219991.mvfrm
Library\Bee\artifacts\mvdfrm\Unity.Collections.LowLevel.ILSupport.dll_2E40CE80E145E521.mvfrm
Library\Bee\artifacts\mvdfrm\Unity.VisualScripting.Antlr3.Runtime.dll_6B5854E2366B9BC5.mvfrm